^H:\PRACTICE(KRONSHTAD)\С++\PARSER INI\PARSER INI\STDAFX.CPP
/c /ZI /nologo /W3 /WX- /diagnostics:classic /sdl /Od /Oy- /D WIN32 /D _DEBUG /D _CONSOLE /D _UNICODE /D UNICODE /Gm /EHsc /RTC1 /MDd /GS /fp:precise /Zc:wchar_t /Zc:forScope /Zc:inline /Yc"stdafx.h" /Fp"DEBUG\PARSER INI.PCH" /Fo"DEBUG\\" /Fd"DEBUG\VC141.PDB" /Gd /TP /analyze- H:\PRACTICE(KRONSHTAD)\С++\PARSER INI\PARSER INI\STDAFX.CPP
^H:\PRACTICE(KRONSHTAD)\С++\PARSER INI\PARSER INI\PARSERINI.CPP
/c /ZI /nologo /W3 /WX- /diagnostics:classic /sdl /Od /Oy- /D WIN32 /D _DEBUG /D _CONSOLE /D _UNICODE /D UNICODE /Gm /EHsc /RTC1 /MDd /GS /fp:precise /Zc:wchar_t /Zc:forScope /Zc:inline /Yu"stdafx.h" /Fp"DEBUG\PARSER INI.PCH" /Fo"DEBUG\\" /Fd"DEBUG\VC141.PDB" /Gd /TP /analyze- H:\PRACTICE(KRONSHTAD)\С++\PARSER INI\PARSER INI\PARSERINI.CPP
^H:\PRACTICE(KRONSHTAD)\C++ BITBUCKET\PARSER INI\PARSER INI\STDAFX.CPP
/c /ZI /nologo /W3 /WX- /diagnostics:classic /sdl /Od /Oy- /D WIN32 /D _DEBUG /D _CONSOLE /D _UNICODE /D UNICODE /Gm /EHsc /RTC1 /MDd /GS /fp:precise /Zc:wchar_t /Zc:forScope /Zc:inline /Yc"stdafx.h" /Fp"DEBUG\PARSER INI.PCH" /Fo"DEBUG\\" /Fd"DEBUG\VC141.PDB" /Gd /TP /analyze- H:\PRACTICE(KRONSHTAD)\C++ BITBUCKET\PARSER INI\PARSER INI\STDAFX.CPP
^H:\PRACTICE(KRONSHTAD)\C++ BITBUCKET\PARSER INI\PARSER INI\PARSERINI.CPP
/c /ZI /nologo /W3 /WX- /diagnostics:classic /sdl /Od /Oy- /D WIN32 /D _DEBUG /D _CONSOLE /D _UNICODE /D UNICODE /Gm /EHsc /RTC1 /MDd /GS /fp:precise /Zc:wchar_t /Zc:forScope /Zc:inline /Yu"stdafx.h" /Fp"DEBUG\PARSER INI.PCH" /Fo"DEBUG\\" /Fd"DEBUG\VC141.PDB" /Gd /TP /analyze- H:\PRACTICE(KRONSHTAD)\C++ BITBUCKET\PARSER INI\PARSER INI\PARSERINI.CPP
